{
	"extName": {
		"message": "CardBook",
		"description": "Name of the extension - do NOT translate"
	},
	"extDesc": {
		"message": "vCard address book",
		"description": "Description of the extension - do NOT translate"
	},
	"browserActionTitle": {
		"message": "CardBook",
		"description": "Switch to the CardBook tab"
	}
}
