{
	"extName": {
		"message": "CardBook",
		"description": "Name of the extension - do NOT translate"
	},
	
	"extDesc": {
		"message": "Directorio de contactos vCard",
		"description": "Description of the extension - do NOT translate"
	},
	
	"browserActionTitle": {
		"message": "CardBook",
		"description": "Ir a la pestaña CardBook"
	}
}
