{
	"extName": {
		"message": "Kontakti (CardBook)",
		"description": "Name of the extension - do NOT translate"
	},
	
	"extDesc": {
		"message": "vCard kontakti",
		"description": "Description of the extension - do NOT translate"
	},
	
	"browserActionTitle": {
		"message": "Kontakti",
		"description": "Prebaci u CardBook tab"
	}
}
